{
    "prepare_queue": {
        "installed": [],
        "uninstalled": []
    },
    "config_munge": {
        "files": {
            "framework": {
                "parents": {
                    "CoreBluetooth.framework": [
                        {
                            "xml": "false",
                            "count": 3
                        }
                    ]
                }
            },
            "config.xml": {
                "parents": {
                    "/widget": [
                        {
                            "xml": "<feature name=\"BluetoothSerial\"><param name=\"ios-package\" onload=\"true\" value=\"MEGBluetoothSerial\" /></feature>",
                            "count": 1
                        }
                    ],
                    "/*": [
                        {
                            "xml": "<feature name=\"BluetoothLePlugin\"><param name=\"ios-package\" value=\"BluetoothLePlugin\" /></feature>",
                            "count": 1
                        },
                        {
                            "xml": "<feature name=\"BLE\"><param name=\"ios-package\" value=\"EVOBLE\" /></feature>",
                            "count": 1
                        }
                    ]
                }
            },
            "*-Info.plist": {
                "parents": {
                    "UIBackgroundModes": [
                        {
                            "xml": "<array><string>bluetooth-central</string></array>",
                            "count": 1
                        }
                    ]
                }
            }
        }
    },
    "installed_plugins": {
        "com.megster.cordova.bluetoothserial": {
            "PACKAGE_NAME": "com.example.hello"
        },
        "com.randdusing.bluetoothle": {
            "PACKAGE_NAME": "com.example.hello"
        },
        "com.evothings.ble": {
            "PACKAGE_NAME": "com.example.hello"
        }
    },
    "dependent_plugins": {}
}